ROI,TLX,TLY,BRX,BRY
Reward_zone_1,919.9125,48.976190476190474,1079.24375,244.88095238095238
Decision_zone,919.9125,573.3095238095239,1079.24375,731.7619047619047
Starting_zone_1,225.46875,573.3095238095239,420.875,731.7619047619047
Starting_zone_2,1536.1937500000001,573.3095238095239,1743.625,731.7619047619047
Reward_zone_2,919.9125,1057.3095238095239,1079.24375,1233.047619047619
