ROI,TLX,TLY,BRX,BRY
Reward_zone_1,910.8937500000001,31.69047619047619,1067.21875,230.47619047619048
Starting_zone_2,1533.1875,558.9047619047619,1737.6125,711.5952380952381
Decision_zone,910.8937500000001,558.9047619047619,1067.21875,711.5952380952381
Starting_zone_1,222.4625,558.9047619047619,414.8625,711.5952380952381
Reward_zone_2,910.8937500000001,1040.0238095238094,1067.21875,1227.2857142857142
