ROI,TLX,TLY,BRX,BRY
Reward_zone_1,922.91875,48.976190476190474,1079.24375,242.0
Decision_zone,922.91875,570.4285714285714,1079.24375,723.1190476190476
Starting_zone_1,231.48125000000002,570.4285714285714,432.90000000000003,723.1190476190476
Reward_zone_2,922.91875,1042.904761904762,1079.24375,1210.0
Starting_zone_2,1548.21875,570.4285714285714,1740.61875,723.1190476190476
