,ROI,TLX,TLY,BRX,BRY,FPS
0,Reward_Zone_1,928.93125,46.095238095238095,1082.25,239.11904761904762,20.0
0,Starting_Zone_1,225.46875,576.1904761904761,423.88125,720.2380952380952,20.0
0,Decision_Zone,928.93125,570.4285714285714,1085.2562500000001,726.0,20.0
0,Reward_Zone_2,928.93125,999.6904761904761,1079.24375,1186.952380952381,20.0
0,Starting_Zone_2,1551.2250000000001,567.547619047619,1737.6125,728.8809523809524,20.0
