ROI,TLX,TLY,BRX,BRY
Reward_zone_1,871.8125,31.69047619047619,1034.15,230.47619047619048
Decision_zone,871.8125,556.0238095238095,1034.15,711.5952380952381
Starting_zone_1,192.4,556.0238095238095,393.81875,711.5952380952381
Starting_zone_2,1536.1937500000001,556.0238095238095,1731.6000000000001,711.5952380952381
Reward_zone_2,871.8125,1034.2619047619048,1034.15,1218.642857142857
