ROI,TLX,TLY,BRX,BRY
Reward_zone_1,853.775,28.80952380952381,1016.1125000000001,227.5952380952381
Starting_zone_1,177.36875,550.2619047619047,384.8,705.8333333333334
Decision_zone,853.775,550.2619047619047,1016.1125000000001,705.8333333333334
Reward_zone_2,853.775,1034.2619047619048,1016.1125000000001,1215.7619047619048
Starting_zone_2,1482.08125,550.2619047619047,1671.4750000000001,705.8333333333334
