ROI,TLX,TLY,BRX,BRY
Reward_zone_1,865.8000000000001,34.57142857142857,1025.1312500000001,227.5952380952381
Starting_zone_2,1530.18125,556.0238095238095,1734.60625,717.3571428571429
Starting_zone_1,192.4,556.0238095238095,399.83125,717.3571428571429
Decision_zone,865.8000000000001,556.0238095238095,1025.1312500000001,717.3571428571429
Reward_zone_2,865.8000000000001,1042.904761904762,1025.1312500000001,1221.5238095238094
